{
    "variants": {
      "age=0": { "model":  "auraa:rice_plant0" },
      "age=1": { "model":  "auraa:rice_plant1" },
      "age=2": { "model":  "auraa:rice_plant2" },
      "age=3": { "model":  "auraa:rice_plant3" },
      "age=4": { "model":  "auraa:rice_plant4" },
      "age=5": { "model":  "auraa:rice_plant5" },
      "age=6": { "model":  "auraa:rice_plant6" },
      "age=7": { "model":  "auraa:rice_plant7" }
    }
}