{
  "minecraft:adventure/adventuring_time": {
    "criteria": {
      "ice_flats": "2019-10-05 00:40:12 -0400",
      "deep_ocean": "2019-10-05 00:40:50 -0400",
      "beaches": "2019-10-05 00:41:13 -0400",
      "taiga": "2019-10-05 00:41:15 -0400",
      "taiga_cold": "2019-10-05 00:39:34 -0400",
      "ocean": "2019-10-05 00:40:32 -0400",
      "cold_beach": "2019-10-05 00:40:24 -0400",
      "river": "2019-10-05 00:40:10 -0400"
    },
    "done": false
  }
}