{
    "type": "minecraft:crafting_shaped",

    "pattern":
    [
        "  B",
        " D ",
        "B  "
    ],

    "key":
    {
        "B":
        {
            "item": "minecraft:stained_glass_pane",
            "data": 3
        },
        "D":
        {
            "item": "minecraft:diamond"
        }
    },

    "result":
    {
        "item": "auraa:martins_tool",
        "count": 1
    }
}