{
  "type": "minecraft:crafting_shaped",
  "pattern": [
    "T T",
    "TTT",
    "TTT"
  ],
  "key": {
    "T": {
      "item": "auraa:thicc_thighs"
    }
  },
  "result": {
    "item": "auraa:thigh_chestplate",
    "count": 1
  }
}