{
  "type": "minecraft:crafting_shaped",
  "pattern": [
    "   ",
    "TTT",
    "T T"
  ],
  "key": {
    "T": {
      "item": "auraa:thicc_thighs"
    }
  },
  "result": {
    "item": "auraa:thigh_helmet",
    "count": 1
  }
}