{
  "type": "minecraft:crafting_shaped",

  "pattern":
  [
    " T ",
    " T ",
    " S "
  ],

  "key":
  {
    "T":
    {
      "item": "auraa:thicc_thighs"
    },
    "S":
    {
     "item": "minecraft:stick"
    }

  },

  "result":
  {
    "item": "auraa:thigh_sword",
    "count": 1
  }
}